(module DIP-22_1400_ELL (layer F.Cu) (tedit 60FEC945)
  (fp_text reference REF** (at -14.8 0 90) (layer F.SilkS)
    (effects (font (size 1 1) (thickness 0.15)))
  )
  (fp_text value DIP-22_1400_ELL (at 0 0) (layer F.Fab)
    (effects (font (size 1 1) (thickness 0.15)))
  )
  (fp_line (start -13.55 19.03) (end -13.55 -19.03) (layer F.CrtYd) (width 0.05))
  (fp_line (start 13.55 19.03) (end -13.55 19.03) (layer F.CrtYd) (width 0.05))
  (fp_line (start 13.55 -19.03) (end 13.55 19.03) (layer F.CrtYd) (width 0.05))
  (fp_line (start -13.55 -19.03) (end 13.55 -19.03) (layer F.CrtYd) (width 0.05))
  (fp_line (start -13.8 6.426666) (end -13.8 19.28) (layer F.SilkS) (width 0.12))
  (fp_line (start -13.44 6.426666) (end -13.8 6.426666) (layer F.SilkS) (width 0.12))
  (fp_line (start -13.44 -6.426666) (end -13.44 6.426666) (layer F.SilkS) (width 0.12))
  (fp_line (start -13.8 -6.426666) (end -13.44 -6.426666) (layer F.SilkS) (width 0.12))
  (fp_line (start -13.799999 -19.28) (end -13.8 -6.426666) (layer F.SilkS) (width 0.12))
  (fp_line (start 13.8 -19.28) (end -13.799999 -19.28) (layer F.SilkS) (width 0.12))
  (fp_line (start 13.799999 19.28) (end 13.8 -19.28) (layer F.SilkS) (width 0.12))
  (fp_line (start -13.8 19.28) (end 13.799999 19.28) (layer F.SilkS) (width 0.12))
  (pad 12 thru_hole oval (at -12.7 -17.78) (size 1.2 2) (drill 0.8) (layers *.Cu *.Mask))
  (pad 1 thru_hole oval (at -12.7 17.78) (size 1.2 2) (drill 0.8) (layers *.Cu *.Mask))
  (pad 13 thru_hole oval (at -10.16 -17.78) (size 1.2 2) (drill 0.8) (layers *.Cu *.Mask))
  (pad 2 thru_hole oval (at -10.16 17.78) (size 1.2 2) (drill 0.8) (layers *.Cu *.Mask))
  (pad 14 thru_hole oval (at -7.62 -17.78) (size 1.2 2) (drill 0.8) (layers *.Cu *.Mask))
  (pad 3 thru_hole oval (at -7.62 17.78) (size 1.2 2) (drill 0.8) (layers *.Cu *.Mask))
  (pad 15 thru_hole oval (at -5.08 -17.78) (size 1.2 2) (drill 0.8) (layers *.Cu *.Mask))
  (pad 4 thru_hole oval (at -5.08 17.78) (size 1.2 2) (drill 0.8) (layers *.Cu *.Mask))
  (pad 16 thru_hole oval (at -2.54 -17.78) (size 1.2 2) (drill 0.8) (layers *.Cu *.Mask))
  (pad 5 thru_hole oval (at -2.54 17.78) (size 1.2 2) (drill 0.8) (layers *.Cu *.Mask))
  (pad 17 thru_hole oval (at 0 -17.78) (size 1.2 2) (drill 0.8) (layers *.Cu *.Mask))
  (pad 6 thru_hole oval (at 0 17.78) (size 1.2 2) (drill 0.8) (layers *.Cu *.Mask))
  (pad 18 thru_hole oval (at 2.54 -17.78) (size 1.2 2) (drill 0.8) (layers *.Cu *.Mask))
  (pad 7 thru_hole oval (at 2.54 17.78) (size 1.2 2) (drill 0.8) (layers *.Cu *.Mask))
  (pad 19 thru_hole oval (at 5.08 -17.78) (size 1.2 2) (drill 0.8) (layers *.Cu *.Mask))
  (pad 8 thru_hole oval (at 5.08 17.78) (size 1.2 2) (drill 0.8) (layers *.Cu *.Mask))
  (pad 20 thru_hole oval (at 7.62 -17.78) (size 1.2 2) (drill 0.8) (layers *.Cu *.Mask))
  (pad 9 thru_hole oval (at 7.62 17.78) (size 1.2 2) (drill 0.8) (layers *.Cu *.Mask))
  (pad 21 thru_hole oval (at 10.16 -17.78) (size 1.2 2) (drill 0.8) (layers *.Cu *.Mask))
  (pad 10 thru_hole oval (at 10.16 17.78) (size 1.2 2) (drill 0.8) (layers *.Cu *.Mask))
  (pad 22 thru_hole oval (at 12.7 -17.78) (size 1.2 2) (drill 0.8) (layers *.Cu *.Mask))
  (pad 11 thru_hole oval (at 12.7 17.78) (size 1.2 2) (drill 0.8) (layers *.Cu *.Mask))
)
