EESchema Schematic File Version 4
EELAYER 30 0
EELAYER END
$Descr A4 11693 8268
encoding utf-8
Sheet 1 4
Title ""
Date ""
Rev ""
Comp ""
Comment1 ""
Comment2 ""
Comment3 ""
Comment4 ""
$EndDescr
$Sheet
S 9100 3000 2000 1000
U 60FF5A28
F0 "X Axis" 50
F1 "x-axis.sch" 50
F2 "CSN" I L 9100 3100 50 
F3 "SCK" I L 9100 3200 50 
F4 "SDI" I L 9100 3300 50 
F5 "SDO" O L 9100 3400 50 
F6 "DIAG" O L 9100 3600 50 
F7 "DRV_ENN" I L 9100 3500 50 
$EndSheet
$Sheet
S 9100 4250 2000 1000
U 60FF6C5A
F0 "Y Axis" 50
F1 "y-axis.sch" 50
F2 "CSN" I L 9100 4350 50 
F3 "SCK" I L 9100 4450 50 
F4 "SDI" I L 9100 4550 50 
F5 "SDO" O L 9100 4650 50 
F6 "DRV_ENN" I L 9100 4750 50 
F7 "DIAG" O L 9100 4850 50 
$EndSheet
$Sheet
S 9100 5450 2000 1000
U 60FF6D3F
F0 "Z Axis" 50
F1 "z-axis.sch" 50
F2 "CSN" I L 9100 5550 50 
F3 "SCK" I L 9100 5650 50 
F4 "SDI" I L 9100 5750 50 
F5 "SDO" O L 9100 5850 50 
F6 "DRV_ENN" I L 9100 5950 50 
F7 "DIAG" O L 9100 6050 50 
$EndSheet
$Comp
L MCU_Module:Arduino_Nano_Every A1
U 1 1 61001CAF
P 4700 4350
F 0 "A1" H 4700 3169 50  0000 C CNN
F 1 "Arduino_Nano_Every" H 4700 3260 50  0000 C CNN
F 2 "Module:Arduino_Nano" H 4700 4350 50  0001 C CIN
F 3 "https://content.arduino.cc/assets/NANOEveryV3.0_sch.pdf" H 4700 4350 50  0001 C CNN
	1    4700 4350
	1    0    0    -1  
$EndComp
Wire Wire Line
	9100 5650 8850 5650
Wire Wire Line
	8750 5750 9100 5750
Wire Wire Line
	9100 5850 8650 5850
Wire Wire Line
	9100 4450 8850 4450
Connection ~ 8850 4450
Wire Wire Line
	8850 4450 8850 5650
Wire Wire Line
	9100 4550 8750 4550
Connection ~ 8750 4550
Wire Wire Line
	8750 4550 8750 5750
Wire Wire Line
	9100 4650 8650 4650
Connection ~ 8650 4650
Wire Wire Line
	8650 4650 8650 5850
Wire Wire Line
	9100 3200 8850 3200
Connection ~ 8850 3200
Wire Wire Line
	9100 3300 8750 3300
Connection ~ 8750 3300
Wire Wire Line
	8750 3300 8750 4550
Wire Wire Line
	8850 3200 8850 4450
Wire Wire Line
	9100 3400 8650 3400
Connection ~ 8650 3400
Wire Wire Line
	8650 3400 8650 4650
Text GLabel 4000 4950 0    50   Input ~ 0
MISO
Text GLabel 4000 4850 0    50   Output ~ 0
MOSI
Text GLabel 4000 5050 0    50   Output ~ 0
SCK
Text GLabel 4000 3850 0    50   Output ~ 0
X_CS
Text GLabel 4000 3950 0    50   Output ~ 0
Y_CS
Text GLabel 4000 4050 0    50   Output ~ 0
Z_CS
Text GLabel 8650 2600 1    50   Output ~ 0
MISO
Text GLabel 8750 2600 1    50   Input ~ 0
MOSI
Text GLabel 8850 2600 1    50   Input ~ 0
SCK
Wire Wire Line
	8850 2600 8850 3200
Wire Wire Line
	8750 2600 8750 3300
Wire Wire Line
	8650 2600 8650 3400
Text GLabel 8500 3100 0    50   Output ~ 0
X_CS
Text GLabel 8500 4350 0    50   Output ~ 0
Y_CS
Text GLabel 8500 5550 0    50   Output ~ 0
Z_CS
Wire Wire Line
	8500 3100 9100 3100
Wire Wire Line
	8500 4350 9100 4350
Wire Wire Line
	8500 5550 9100 5550
Wire Wire Line
	4000 3850 4200 3850
Wire Wire Line
	4000 3950 4200 3950
Wire Wire Line
	4000 4050 4200 4050
Wire Wire Line
	4000 4850 4200 4850
Wire Wire Line
	4000 4950 4200 4950
Wire Wire Line
	4000 5050 4200 5050
$Comp
L Connector:Screw_Terminal_01x06 J1
U 1 1 61015B25
P 1250 1550
F 0 "J1" H 1168 1025 50  0000 C CNN
F 1 "Screw_Terminal_01x06" H 1168 1116 50  0000 C CNN
F 2 "TerminalBlock:TerminalBlock_bornier-6_P5.08mm" H 1250 1550 50  0001 C CNN
F 3 "~" H 1250 1550 50  0001 C CNN
	1    1250 1550
	-1   0    0    1   
$EndComp
$Comp
L power:GND #PWR0101
U 1 1 61016B28
P 2450 1250
F 0 "#PWR0101" H 2450 1000 50  0001 C CNN
F 1 "GND" H 2455 1077 50  0000 C CNN
F 2 "" H 2450 1250 50  0001 C CNN
F 3 "" H 2450 1250 50  0001 C CNN
	1    2450 1250
	1    0    0    -1  
$EndComp
Wire Wire Line
	1450 1350 1450 1250
Connection ~ 1450 1250
Text Label 1450 1450 0    50   ~ 0
+24Vsafe
Text Label 1450 1550 0    50   ~ 0
+24Vunsafe
$Comp
L power:Vdrive #PWR0102
U 1 1 6101CD8B
P 1950 1550
F 0 "#PWR0102" H 1750 1400 50  0001 C CNN
F 1 "Vdrive" V 1965 1678 50  0000 L CNN
F 2 "" H 1950 1550 50  0001 C CNN
F 3 "" H 1950 1550 50  0001 C CNN
	1    1950 1550
	0    1    1    0   
$EndComp
$Comp
L power:+24V #PWR0103
U 1 1 6101D513
P 1950 1450
F 0 "#PWR0103" H 1950 1300 50  0001 C CNN
F 1 "+24V" V 1965 1578 50  0000 L CNN
F 2 "" H 1950 1450 50  0001 C CNN
F 3 "" H 1950 1450 50  0001 C CNN
	1    1950 1450
	0    1    1    0   
$EndComp
$Comp
L power:+5V #PWR0104
U 1 1 6101D961
P 1950 1650
F 0 "#PWR0104" H 1950 1500 50  0001 C CNN
F 1 "+5V" V 1965 1778 50  0000 L CNN
F 2 "" H 1950 1650 50  0001 C CNN
F 3 "" H 1950 1650 50  0001 C CNN
	1    1950 1650
	0    1    1    0   
$EndComp
$Comp
L power:+5P #PWR0105
U 1 1 6101DB7D
P 1950 1750
F 0 "#PWR0105" H 1950 1600 50  0001 C CNN
F 1 "+5P" V 1965 1878 50  0000 L CNN
F 2 "" H 1950 1750 50  0001 C CNN
F 3 "" H 1950 1750 50  0001 C CNN
	1    1950 1750
	0    1    1    0   
$EndComp
Text Label 1450 1650 0    50   ~ 0
+5Vunsafe
Text Label 1450 1750 0    50   ~ 0
+5Vsafe
Wire Wire Line
	1450 1450 1950 1450
Wire Wire Line
	1450 1550 1950 1550
Wire Wire Line
	1450 1650 1950 1650
Wire Wire Line
	1450 1750 1850 1750
Wire Wire Line
	1450 1250 2450 1250
$Comp
L power:GND #PWR0106
U 1 1 6102B5BF
P 4700 5350
F 0 "#PWR0106" H 4700 5100 50  0001 C CNN
F 1 "GND" H 4705 5177 50  0000 C CNN
F 2 "" H 4700 5350 50  0001 C CNN
F 3 "" H 4700 5350 50  0001 C CNN
	1    4700 5350
	1    0    0    -1  
$EndComp
$Comp
L power:+5V #PWR0107
U 1 1 6102B5D2
P 4900 3350
F 0 "#PWR0107" H 4900 3200 50  0001 C CNN
F 1 "+5V" H 4915 3523 50  0000 C CNN
F 2 "" H 4900 3350 50  0001 C CNN
F 3 "" H 4900 3350 50  0001 C CNN
	1    4900 3350
	1    0    0    -1  
$EndComp
$Comp
L power:+5P #PWR0108
U 1 1 6102B5D8
P 4200 4650
F 0 "#PWR0108" H 4200 4500 50  0001 C CNN
F 1 "+5P" V 4215 4778 50  0000 L CNN
F 2 "" H 4200 4650 50  0001 C CNN
F 3 "" H 4200 4650 50  0001 C CNN
	1    4200 4650
	0    -1   -1   0   
$EndComp
$Comp
L Device:R R1
U 1 1 6103A165
P 1850 1900
F 0 "R1" H 1920 1946 50  0000 L CNN
F 1 "10k" H 1920 1855 50  0000 L CNN
F 2 "Resistor_THT:R_Axial_DIN0309_L9.0mm_D3.2mm_P12.70mm_Horizontal" V 1780 1900 50  0001 C CNN
F 3 "~" H 1850 1900 50  0001 C CNN
	1    1850 1900
	1    0    0    -1  
$EndComp
Connection ~ 1850 1750
Wire Wire Line
	1850 1750 1950 1750
$Comp
L power:GND #PWR0109
U 1 1 6103A7B9
P 1850 2050
F 0 "#PWR0109" H 1850 1800 50  0001 C CNN
F 1 "GND" H 1855 1877 50  0000 C CNN
F 2 "" H 1850 2050 50  0001 C CNN
F 3 "" H 1850 2050 50  0001 C CNN
	1    1850 2050
	1    0    0    -1  
$EndComp
Wire Wire Line
	9100 5950 8950 5950
Wire Wire Line
	8950 5950 8950 4750
Wire Wire Line
	8950 3500 9100 3500
Wire Wire Line
	9100 4750 8950 4750
Connection ~ 8950 4750
Wire Wire Line
	8950 4750 8950 3500
$Comp
L Device:R R14
U 1 1 610C03ED
P 6600 3500
F 0 "R14" V 6393 3500 50  0000 C CNN
F 1 "R" V 6484 3500 50  0000 C CNN
F 2 "Resistor_THT:R_Axial_DIN0204_L3.6mm_D1.6mm_P5.08mm_Vertical" V 6530 3500 50  0001 C CNN
F 3 "~" H 6600 3500 50  0001 C CNN
	1    6600 3500
	0    1    1    0   
$EndComp
$Comp
L Device:R R16
U 1 1 610CC2F4
P 7650 3350
F 0 "R16" H 7720 3396 50  0000 L CNN
F 1 "R" H 7720 3305 50  0000 L CNN
F 2 "Resistor_THT:R_Axial_DIN0204_L3.6mm_D1.6mm_P5.08mm_Vertical" V 7580 3350 50  0001 C CNN
F 3 "~" H 7650 3350 50  0001 C CNN
	1    7650 3350
	1    0    0    -1  
$EndComp
Connection ~ 8950 3500
$Comp
L power:GND #PWR0117
U 1 1 610D9E89
P 8050 4300
F 0 "#PWR0117" H 8050 4050 50  0001 C CNN
F 1 "GND" H 8055 4127 50  0000 C CNN
F 2 "" H 8050 4300 50  0001 C CNN
F 3 "" H 8050 4300 50  0001 C CNN
	1    8050 4300
	1    0    0    -1  
$EndComp
$Comp
L power:+5V #PWR0118
U 1 1 610DDEF0
P 7650 3100
F 0 "#PWR0118" H 7650 2950 50  0001 C CNN
F 1 "+5V" V 7665 3228 50  0000 L CNN
F 2 "" H 7650 3100 50  0001 C CNN
F 3 "" H 7650 3100 50  0001 C CNN
	1    7650 3100
	1    0    0    -1  
$EndComp
$Comp
L Isolator:PC827 U7
U 1 1 610E13E2
P 7150 3600
F 0 "U7" H 7150 3925 50  0000 C CNN
F 1 "PC827" H 7150 3834 50  0000 C CNN
F 2 "Package_DIP:DIP-8_W7.62mm" H 6950 3400 50  0001 L CIN
F 3 "http://optoelectronics.liteon.com/upload/download/DS-70-96-0016/LTV-8X7%20series.PDF" H 7150 3600 50  0001 L CNN
	1    7150 3600
	1    0    0    -1  
$EndComp
$Comp
L Isolator:PC827 U7
U 2 1 610E1E6A
P 7150 4200
F 0 "U7" H 7150 4525 50  0000 C CNN
F 1 "PC827" H 7150 4434 50  0000 C CNN
F 2 "Package_DIP:DIP-8_W7.62mm" H 6950 4000 50  0001 L CIN
F 3 "http://optoelectronics.liteon.com/upload/download/DS-70-96-0016/LTV-8X7%20series.PDF" H 7150 4200 50  0001 L CNN
	2    7150 4200
	1    0    0    -1  
$EndComp
Wire Wire Line
	7650 3100 7650 3200
$Comp
L Device:R R15
U 1 1 610F4266
P 6600 4100
F 0 "R15" V 6393 4100 50  0000 C CNN
F 1 "R" V 6484 4100 50  0000 C CNN
F 2 "Resistor_THT:R_Axial_DIN0204_L3.6mm_D1.6mm_P5.08mm_Vertical" V 6530 4100 50  0001 C CNN
F 3 "~" H 6600 4100 50  0001 C CNN
	1    6600 4100
	0    1    1    0   
$EndComp
$Comp
L power:+5P #PWR0119
U 1 1 610FAAB4
P 6450 3500
F 0 "#PWR0119" H 6450 3350 50  0001 C CNN
F 1 "+5P" V 6465 3628 50  0000 L CNN
F 2 "" H 6450 3500 50  0001 C CNN
F 3 "" H 6450 3500 50  0001 C CNN
	1    6450 3500
	0    -1   -1   0   
$EndComp
Wire Wire Line
	7450 3500 7650 3500
Connection ~ 7650 3500
Wire Wire Line
	7650 3500 8950 3500
Wire Wire Line
	7450 3700 7450 4100
Wire Wire Line
	7450 4300 8050 4300
$Comp
L power:GND #PWR0120
U 1 1 611254B6
P 6750 3700
F 0 "#PWR0120" H 6750 3450 50  0001 C CNN
F 1 "GND" H 6755 3527 50  0000 C CNN
F 2 "" H 6750 3700 50  0001 C CNN
F 3 "" H 6750 3700 50  0001 C CNN
	1    6750 3700
	1    0    0    -1  
$EndComp
Wire Wire Line
	6750 3500 6850 3500
Wire Wire Line
	6750 3700 6850 3700
Wire Wire Line
	6750 4100 6850 4100
$Comp
L power:GND #PWR0121
U 1 1 6112BC32
P 6750 4300
F 0 "#PWR0121" H 6750 4050 50  0001 C CNN
F 1 "GND" H 6755 4127 50  0000 C CNN
F 2 "" H 6750 4300 50  0001 C CNN
F 3 "" H 6750 4300 50  0001 C CNN
	1    6750 4300
	1    0    0    -1  
$EndComp
Wire Wire Line
	6750 4300 6850 4300
Wire Wire Line
	6450 4100 5800 4100
Wire Wire Line
	5800 4100 5800 4350
Wire Wire Line
	5800 4350 5200 4350
$EndSCHEMATC
