EESchema Schematic File Version 4
EELAYER 30 0
EELAYER END
$Descr A4 11693 8268
encoding utf-8
Sheet 2 4
Title ""
Date ""
Rev ""
Comp ""
Comment1 ""
Comment2 ""
Comment3 ""
Comment4 ""
$EndDescr
Text HLabel 5250 2350 0    50   Input ~ 0
SDI
Text HLabel 5250 2450 0    50   Input ~ 0
SDO
Text HLabel 5250 2250 0    50   Input ~ 0
SCK
$Comp
L TMC:TMC5160_BOB U2
U 1 1 60FF99E8
P 6150 2750
F 0 "U2" H 6150 3731 50  0000 C CNN
F 1 "TMC5160_BOB" H 6150 3640 50  0000 C CNB
F 2 "TMC:DIP-22_1400_ELL" H 5050 4450 50  0001 C CNN
F 3 "" H 5050 4450 50  0001 C CNN
	1    6150 2750
	1    0    0    -1  
$EndComp
Text HLabel 5250 2150 0    50   Input ~ 0
CSN
Wire Wire Line
	5250 2150 5450 2150
Wire Wire Line
	5250 2250 5450 2250
Wire Wire Line
	5250 2350 5450 2350
Wire Wire Line
	5250 2450 5450 2450
$Comp
L power:GND #PWR?
U 1 1 6103D932
P 5950 3550
AR Path="/6103D932" Ref="#PWR?"  Part="1" 
AR Path="/60FF5A28/6103D932" Ref="#PWR0110"  Part="1" 
F 0 "#PWR0110" H 5950 3300 50  0001 C CNN
F 1 "GND" H 5955 3377 50  0000 C CNN
F 2 "" H 5950 3550 50  0001 C CNN
F 3 "" H 5950 3550 50  0001 C CNN
	1    5950 3550
	1    0    0    -1  
$EndComp
$Comp
L power:Vdrive #PWR?
U 1 1 6103D938
P 6350 1650
AR Path="/6103D938" Ref="#PWR?"  Part="1" 
AR Path="/60FF5A28/6103D938" Ref="#PWR0111"  Part="1" 
F 0 "#PWR0111" H 6150 1500 50  0001 C CNN
F 1 "Vdrive" H 6365 1823 50  0000 C CNN
F 2 "" H 6350 1650 50  0001 C CNN
F 3 "" H 6350 1650 50  0001 C CNN
	1    6350 1650
	1    0    0    -1  
$EndComp
$Comp
L power:+5P #PWR?
U 1 1 6103D94A
P 5950 1650
AR Path="/6103D94A" Ref="#PWR?"  Part="1" 
AR Path="/60FF5A28/6103D94A" Ref="#PWR0112"  Part="1" 
F 0 "#PWR0112" H 5950 1500 50  0001 C CNN
F 1 "+5P" H 5965 1823 50  0000 C CNN
F 2 "" H 5950 1650 50  0001 C CNN
F 3 "" H 5950 1650 50  0001 C CNN
	1    5950 1650
	1    0    0    -1  
$EndComp
Wire Wire Line
	6350 3550 6250 3550
Connection ~ 5950 3550
Connection ~ 6050 3550
Wire Wire Line
	6050 3550 5950 3550
Connection ~ 6250 3550
Wire Wire Line
	6250 3550 6050 3550
Wire Wire Line
	5950 1950 5950 1650
Wire Wire Line
	6350 1650 6350 1950
$Comp
L Connector:Screw_Terminal_01x04 J2
U 1 1 61042034
P 7050 2250
F 0 "J2" H 7130 2242 50  0000 L CNN
F 1 "Screw_Terminal_01x04" H 7130 2151 50  0000 L CNN
F 2 "TerminalBlock:TerminalBlock_bornier-4_P5.08mm" H 7050 2250 50  0001 C CNN
F 3 "~" H 7050 2250 50  0001 C CNN
	1    7050 2250
	1    0    0    -1  
$EndComp
$Comp
L Connector:Screw_Terminal_01x02 J5
U 1 1 6105C2C4
P 1750 2300
F 0 "J5" H 1668 1975 50  0000 C CNN
F 1 "Screw_Terminal_01x02" H 1668 2066 50  0000 C CNN
F 2 "TerminalBlock:TerminalBlock_bornier-2_P5.08mm" H 1750 2300 50  0001 C CNN
F 3 "~" H 1750 2300 50  0001 C CNN
	1    1750 2300
	-1   0    0    1   
$EndComp
Text HLabel 7250 3350 2    50   Output ~ 0
DIAG
Wire Wire Line
	6850 3350 7250 3350
Wire Wire Line
	5250 2650 5250 3550
Wire Wire Line
	5250 3550 5950 3550
Wire Wire Line
	5250 2650 5450 2650
Text HLabel 5150 2750 0    50   Input ~ 0
DRV_ENN
Wire Wire Line
	5150 2750 5450 2750
$Comp
L Isolator:PC827 U4
U 1 1 6106C50D
P 3400 2300
F 0 "U4" H 3400 2625 50  0000 C CNN
F 1 "PC827" H 3400 2534 50  0000 C CNN
F 2 "Package_DIP:DIP-8_W7.62mm" H 3200 2100 50  0001 L CIN
F 3 "http://optoelectronics.liteon.com/upload/download/DS-70-96-0016/LTV-8X7%20series.PDF" H 3400 2300 50  0001 L CNN
	1    3400 2300
	1    0    0    -1  
$EndComp
$Comp
L Isolator:PC827 U4
U 2 1 6106D3A7
P 3400 2850
F 0 "U4" H 3400 3175 50  0000 C CNN
F 1 "PC827" H 3400 3084 50  0000 C CNN
F 2 "Package_DIP:DIP-8_W7.62mm" H 3200 2650 50  0001 L CIN
F 3 "http://optoelectronics.liteon.com/upload/download/DS-70-96-0016/LTV-8X7%20series.PDF" H 3400 2850 50  0001 L CNN
	2    3400 2850
	1    0    0    -1  
$EndComp
$Comp
L Device:R R4
U 1 1 6107876A
P 3850 3400
F 0 "R4" H 3920 3446 50  0000 L CNN
F 1 "R" H 3920 3355 50  0000 L CNN
F 2 "Resistor_THT:R_Axial_DIN0204_L3.6mm_D1.6mm_P5.08mm_Vertical" V 3780 3400 50  0001 C CNN
F 3 "~" H 3850 3400 50  0001 C CNN
	1    3850 3400
	1    0    0    -1  
$EndComp
$Comp
L Device:R R5
U 1 1 6107935D
P 4250 3400
F 0 "R5" H 4320 3446 50  0000 L CNN
F 1 "R" H 4320 3355 50  0000 L CNN
F 2 "Resistor_THT:R_Axial_DIN0204_L3.6mm_D1.6mm_P5.08mm_Vertical" V 4180 3400 50  0001 C CNN
F 3 "~" H 4250 3400 50  0001 C CNN
	1    4250 3400
	1    0    0    -1  
$EndComp
Wire Wire Line
	5450 2850 4400 2850
Wire Wire Line
	4400 2850 4400 2400
$Comp
L power:+5V #PWR0114
U 1 1 61084100
P 3750 2100
F 0 "#PWR0114" H 3750 1950 50  0001 C CNN
F 1 "+5V" H 3765 2273 50  0000 C CNN
F 2 "" H 3750 2100 50  0001 C CNN
F 3 "" H 3750 2100 50  0001 C CNN
	1    3750 2100
	1    0    0    -1  
$EndComp
Wire Wire Line
	3750 2100 3750 2200
Wire Wire Line
	3750 2750 3700 2750
Wire Wire Line
	3700 2200 3750 2200
Connection ~ 3750 2200
Wire Wire Line
	3750 2200 3750 2750
Wire Wire Line
	3700 2950 4250 2950
Wire Wire Line
	3700 2400 3850 2400
Wire Wire Line
	3850 3550 4250 3550
Wire Wire Line
	4250 3550 5250 3550
Connection ~ 4250 3550
Connection ~ 5250 3550
Wire Wire Line
	3850 3250 3850 2400
Connection ~ 3850 2400
Wire Wire Line
	3850 2400 4400 2400
Wire Wire Line
	4250 3250 4250 2950
Connection ~ 4250 2950
Wire Wire Line
	4250 2950 5450 2950
$Comp
L Device:R R2
U 1 1 6109022E
P 2700 2200
F 0 "R2" V 2493 2200 50  0000 C CNN
F 1 "R" V 2584 2200 50  0000 C CNN
F 2 "Resistor_THT:R_Axial_DIN0204_L3.6mm_D1.6mm_P5.08mm_Vertical" V 2630 2200 50  0001 C CNN
F 3 "~" H 2700 2200 50  0001 C CNN
	1    2700 2200
	0    1    1    0   
$EndComp
$Comp
L Device:R R3
U 1 1 61090856
P 2700 2750
F 0 "R3" V 2493 2750 50  0000 C CNN
F 1 "R" V 2584 2750 50  0000 C CNN
F 2 "Resistor_THT:R_Axial_DIN0204_L3.6mm_D1.6mm_P5.08mm_Vertical" V 2630 2750 50  0001 C CNN
F 3 "~" H 2700 2750 50  0001 C CNN
	1    2700 2750
	0    1    1    0   
$EndComp
Wire Wire Line
	1950 2200 2550 2200
Wire Wire Line
	2850 2200 3100 2200
Wire Wire Line
	1950 2300 2400 2300
Wire Wire Line
	2400 2300 2400 2750
Wire Wire Line
	2400 2750 2550 2750
Wire Wire Line
	2850 2750 3100 2750
Wire Wire Line
	3100 2400 3000 2400
Wire Wire Line
	3000 2400 3000 2950
Wire Wire Line
	3000 3550 3850 3550
Connection ~ 3850 3550
Wire Wire Line
	3100 2950 3000 2950
Connection ~ 3000 2950
Wire Wire Line
	3000 2950 3000 3550
$EndSCHEMATC
